package rules.Assignment.GlobalActivityAssignmentRules_dir.Activitybasedonpattern_dir
uses gw.api.database.Relop
uses gw.api.database.Query
uses typekey.Job

@gw.rules.RuleName("TDIC_GPC173209 - NewBusiness Queue")
internal class TDIC_GPC173209NewBusinessQueue {
  static function doCondition(activity            :            entity.Activity) : boolean {
/*start00rule*/
return
activity.ActivityPattern == ActivityPattern.finder.getActivityPatternByCode("approve_submission") or
(activity.Job.Subtype == Job.TC_SUBMISSION and
(activity.ActivityPattern == ActivityPattern.finder.getActivityPatternByCode("open_eval_issue")))
/*end00rule*/
}

  static function doAction(activity            :            entity.Activity, actions : gw.rules.Action) {
/*start00rule*/
// NewBusiness GROUP = tdic-sb:202
// NewBusiness QUEUE = tdic-sb:101
var group = Query.make(Group).compare(Group#PublicID, Relop.Equals, "tdic-sb:202").select().AtMostOneRow
var queue = group.AssignableQueues.firstWhere( \ q -> q.PublicID == "tdic-sb:101")
activity.CurrentAssignment.assignActivityToQueue(queue, group)
actions.exit() 
/*end00rule*/
  }
}
