package rules.Assignment.GlobalActivityAssignmentRules_dir.Activitybasedonpattern_dir
uses gw.api.database.Relop
uses gw.api.database.Query

@gw.rules.RuleName("TDIC_GAA - Submission Specialists Queue")
internal class TDIC_GAASubmissionSpecialistsQueue {
  static function doCondition(activity    :    entity.Activity) : boolean {
/*start00rule*/
return  //activity.ActivityPattern == ActivityPattern.finder.getActivityPatternByCode("approve_submission") or
        activity.ActivityPattern == ActivityPattern.finder.getActivityPatternByCode("review_declination_letter") or
        (
          activity.Job.Subtype == typekey.Job.TC_SUBMISSION
          and
            //(activity.ActivityPattern == ActivityPattern.finder.getActivityPatternByCode("open_eval_issue")
              //or
            activity.ActivityPattern == ActivityPattern.finder.getActivityPatternByCode("approve_general")//)
        )
/*end00rule*/
}

  static function doAction(activity    :    entity.Activity, actions : gw.rules.Action) {
/*start00rule*/
// SUBMISSION SPECIALISTS GROUP = pc-bcint3:402
// SUBMISSION SPECIALISTS QUEUE = pc-bcint3:501
var group = Query.make(Group).compare(Group#PublicID, Relop.Equals, "pc-bcint3:402").select().AtMostOneRow
var queue = group.AssignableQueues.firstWhere( \ q -> q.PublicID == "pc-bcint3:501")
activity.CurrentAssignment.assignActivityToQueue(queue, group)
actions.exit() 
/*end00rule*/
  }
}
