package rules.EventMessage.EventFired_dir.BillingSystem_dir

@gw.rules.RuleName("Policy")
internal class Policy {
  static function doCondition(messageContext : entity.MessageContext) : boolean {
    
/*start00rule*/
return messageContext.Root typeis Policy
and ScriptParameters.TDIC_DataSource == typekey.DataSource_TDIC.TC_POLICYCENTER as String
/*end00rule*/

  }

  static function doAction(messageContext : entity.MessageContext, actions : gw.rules.Action) {

/*start00rule*/

/*end00rule*/

  }
}
