package rules.EventMessage.EventFired_dir.TDIC_EFR1000000_Statisticalreporting_dir

@gw.rules.RuleName("TDIC_EFR1000100_PolicyPeriod")
internal class TDIC_EFR1000100_PolicyPeriod {
  static function doCondition(messageContext : entity.MessageContext) : boolean {
/*start00rule*/
return messageContext.EventName == "PolicyPeriodChanged"
/*end00rule*/
}

  static function doAction(messageContext : entity.MessageContext, actions : gw.rules.Action) {
/*start00rule*/
 
/*end00rule*/
  }
}
