package rules.EventMessage.EventFired_dir.TDIC_ALL900000_dir.EFR7100OnBase_dir

uses acc.onbase.api.si.MessageBuilder

@gw.rules.RuleName("EFR7150DocumentRemoved")
internal class EFR7150DocumentRemoved {
  static function doCondition(messageContext : entity.MessageContext) : boolean {
/*start00rule*/
    return messageContext.EventName == 'DocumentRemoved'
/*end00rule*/
}

  static function doAction(messageContext : entity.MessageContext, actions : gw.rules.Action) {
/*start00rule*/
    var document = messageContext.Root as Document
    var builder = new MessageBuilder(messageContext.EventName)
    builder.addProperty("DocUID",document.DocUID)
    builder.addProperty("User", User.util.CurrentUser.DisplayName)
    messageContext.createMessage(builder.Message.asUTFString())
/*end00rule*/
  }
}
