package rules.Renewal.RenewalAutoUpdate_dir.WorkersCompv7TDIC_dir
uses tdic.pc.config.job.renewal.CopyAuditToRenewal
@gw.rules.RuleName("Copy Audit to Renewal")
internal class CopyAudittoRenewal {
  static function doCondition(policyPeriod  :  entity.PolicyPeriod) : boolean {
/*start00rule*/
return true
/*end00rule*/
}

  static function doAction(policyPeriod  :  entity.PolicyPeriod, actions : gw.rules.Action) {
/*start00rule*/
var copyAuditToRenewal = new CopyAuditToRenewal(policyPeriod);
copyAuditToRenewal.copyAuditToRenewalIfNeeded(); 
/*end00rule*/
  }
}
