package rules.Assignment.GlobalActivityAssignmentRules_dir.Activitybasedonpattern_dir
uses gw.api.database.Relop
uses gw.api.database.Query
uses gw.pl.logging.LoggerCategory
uses typekey.Job

@gw.rules.RuleName("TDIC_GPC173209 - Renewal Queue")
internal class TDIC_GPC173209RenewalQueue {
  static function doCondition(activity             :             entity.Activity) : boolean {
/*start00rule*/
return
activity.ActivityPattern == ActivityPattern.finder.getActivityPatternByCode("review_renewal") or
activity.ActivityPattern == ActivityPattern.finder.getActivityPatternByCode("renewal_started") or
(activity.Job.Subtype == Job.TC_RENEWAL and
(activity.ActivityPattern == ActivityPattern.finder.getActivityPatternByCode("open_eval_issue")))
/*end00rule*/
}

  static function doAction(activity             :             entity.Activity, actions : gw.rules.Action) {
/*start00rule*/
// Renewal GROUP = tdic-sb:203
// Renewal QUEUE = tdic-sb:102
var group = Query.make(Group).compare(Group#PublicID, Relop.Equals, "tdic-sb:203").select().AtMostOneRow
var queue = group.AssignableQueues.firstWhere( \ q -> q.PublicID == "tdic-sb:102")
activity.CurrentAssignment.assignActivityToQueue(queue, group)
actions.exit() 
/*end00rule*/
  }
}
