package rules.Assignment.GlobalActivityAssignmentRules_dir.Activitybasedonpattern_dir
uses gw.api.database.Query
uses gw.api.database.Relop

@gw.rules.RuleName("TDIC_GAA - Cancellation Specialists Queue")
internal class TDIC_GAACancellationSpecialistsQueue {
  static function doCondition(activity     :     entity.Activity) : boolean {
/*start00rule*/
return  //activity.ActivityPattern == ActivityPattern.finder.getActivityPatternByCode("approve_cancellation") or
        (
          activity.Job.Subtype == typekey.Job.TC_CANCELLATION
          and
            //(activity.ActivityPattern == ActivityPattern.finder.getActivityPatternByCode("open_eval_issue")
              //or
            activity.ActivityPattern == ActivityPattern.finder.getActivityPatternByCode("approve_general")//)
        )
/*end00rule*/
}

  static function doAction(activity     :     entity.Activity, actions : gw.rules.Action) {
/*start00rule*/
// CANCELLATION SPECIALISTS GROUP = pc-tdic:4
// CANCELLATION SPECIALISTS QUEUE = pc-tdic:5
var group = Query.make(Group).compare(Group#PublicID, Relop.Equals, "pc-tdic:4").select().AtMostOneRow
var queue = group.AssignableQueues.firstWhere( \ q -> q.PublicID == "pc-tdic:5")
activity.CurrentAssignment.assignActivityToQueue(queue, group)

actions.exit() 
/*end00rule*/
  }
}
