package rules.Assignment.GlobalActivityAssignmentRules_dir.Activitybasedonpattern_dir
uses gw.api.database.Query
uses gw.api.database.Relop
uses gw.pl.logging.LoggerCategory
/**
* US959
* Shane Sheridan 02/05/2015
*/

@gw.rules.RuleName("TDIC_GAA - Final Audit Queue")
internal class TDIC_GAAFinalAuditQueue {
  static function doCondition(activity    :    entity.Activity) : boolean {
/*start00rule*/
return activity.ActivityPattern == ActivityPattern.finder.getActivityPatternByCode("new_audit_assigmnent") or
       activity.ActivityPattern == ActivityPattern.finder.getActivityPatternByCode("audit_fee_service") or
       activity.ActivityPattern == ActivityPattern.finder.getActivityPatternByCode("audit_reversed_reprocess_audit")

/*end00rule*/
}

  static function doAction(activity    :    entity.Activity, actions : gw.rules.Action) {
/*start00rule*/
// FINAL AUDIT SPECIALISTS GROUP = pc-tdic:3
// FINAL AUDIT SPECIALISTS QUEUE = pc-tdic:2
var group = Query.make(Group).compare(Group#PublicID, Relop.Equals, "pc-tdic:3").select().AtMostOneRow
var queue = group.AssignableQueues.firstWhere( \ q -> q.PublicID == "pc-tdic:2")
activity.CurrentAssignment.assignActivityToQueue(queue, group)
actions.exit()

/*end00rule*/
  }
}
