package rules.Assignment.GlobalActivityAssignmentRules_dir.Activitybasedonpattern_dir
uses gw.api.database.Relop
uses gw.api.database.Query
uses gw.pl.logging.LoggerCategory
//20150302 TJ Talluto - BC US149 - assign reinstatement request activity to Reinstatement Queue (not an UW).

@gw.rules.RuleName("TDIC_GAA - Reinstatement Specialists Queue")
internal class TDIC_GAAReinstatementSpecialistsQueue {
  static function doCondition(activity      :      entity.Activity) : boolean {
/*start00rule*/
return  //activity.ActivityPattern == ActivityPattern.finder.getActivityPatternByCode("approve_reinstatement") or
        (
          activity.Job.Subtype == typekey.Job.TC_REINSTATEMENT
          and
            //(activity.ActivityPattern == ActivityPattern.finder.getActivityPatternByCode("open_eval_issue")
              //or
            activity.ActivityPattern == ActivityPattern.finder.getActivityPatternByCode("approve_general")//)
        )
/*end00rule*/
}

  static function doAction(activity      :      entity.Activity, actions : gw.rules.Action) {
/*start00rule*/
// REINSTATEMENT SPECIALISTS GROUP = pc-tdic:6
// REINSTATEMENT SPECIALISTS QUEUE = pc-tdic:5
var group = Query.make(Group).compare(Group#PublicID, Relop.Equals, "pc-tdic:6").select().AtMostOneRow
var queue = group.AssignableQueues.firstWhere( \ q -> q.PublicID == "pc-tdic:5")
activity.CurrentAssignment.assignActivityToQueue(queue, group)
actions.exit() 
/*end00rule*/
  }
}
