package rules.Assignment.GlobalActivityAssignmentRules_dir.Activitybasedonpattern_dir
uses gw.api.database.Relop
uses gw.api.database.Query
uses gw.pl.logging.LoggerCategory
uses typekey.Job

@gw.rules.RuleName("TDIC_GPC173209 - Audits Pending Audit Processing Queue")
internal class TDIC_GPC173209AuditsPendingAuditProcessingQueue {
  static function doCondition(activity              :              entity.Activity) : boolean {
/*start00rule*/
return
activity.ActivityPattern == ActivityPattern.finder.getActivityPatternByCode("preemption")
/*end00rule*/
}

  static function doAction(activity              :              entity.Activity, actions : gw.rules.Action) {
/*start00rule*/
// Audits Pending Audit Porcessing GROUP = tdic-sb:205
// Audits Pending Audit Porcessing QUEUE = tdic-sb:104
var group = Query.make(Group).compare(Group#PublicID, Relop.Equals, "tdic-sb:205").select().AtMostOneRow
var queue = group.AssignableQueues.firstWhere( \ q -> q.PublicID == "tdic-sb:104")
activity.CurrentAssignment.assignActivityToQueue(queue, group)
actions.exit() 
/*end00rule*/
  }
}
