package rules.EventMessage.EventFired_dir.TDIC_ALL900000_dir.EFR7100OnBase_dir

uses acc.onbase.api.si.PolicyMessageBuilder
uses gw.api.database.Query
uses gw.api.database.Relop
uses gw.api.gx.GXOptions

@gw.rules.RuleName("EFR7140PolicyChanged")
internal class EFR7140PolicyChanged {
  static function doCondition(messageContext : entity.MessageContext) : boolean {
/*start00rule*/
    return messageContext.EventName == "PolicyChanged"
/*end00rule*/
  }

  static function doAction(messageContext : entity.MessageContext, actions : gw.rules.Action) {
/*start00rule*/
    var policy = messageContext.Root as Policy
    var options = new GXOptions() {:Verbose = true}
    var model = new acc.onbase.api.si.model.policymodel.Policy(policy, options)
    if (model.$ShouldSend) {
      var documents = Query.make(Document).compare(Document#Policy, Relop.Equals, policy).select()
      if (documents.Count > 0) {
        var builder = new PolicyMessageBuilder(messageContext.EventName)
        builder.addMessagePart('policy', model)
        builder.addDocumentIds(documents)
        builder.addValueListAsMessagePart('SyncDocuments', builder.Sync)
        builder.addValueListAsMessagePart('AsyncDocuments', builder.Async)
        messageContext.createMessage(builder.Message.asUTFString())
      }
    } 
/*end00rule*/
  }
}
