package rules.EventMessage.EventFired_dir.TDIC_ALL900000_dir.EFR7100OnBase_dir

uses acc.onbase.api.si.PolicyMessageBuilder
uses gw.api.gx.GXOptions

@gw.rules.RuleName("EFR7120DocumentChanged")
internal class EFR7120DocumentChanged {
  static function doCondition(messageContext: entity.MessageContext): boolean {
/*start00rule*/
    return messageContext.EventName == 'DocumentChanged'
/*end00rule*/
  }

  static function doAction(messageContext: entity.MessageContext, actions: gw.rules.Action) {
/*start00rule*/

    var document = messageContext.Root as Document

    if (!document.IsAsyncUpdate) {  // if this is an async update we're done
      var options = new GXOptions() {:Incremental = true, :Verbose = true}
      var model = new acc.onbase.api.si.model.documentmodel.Document(document, options)
      var builder = new PolicyMessageBuilder(messageContext.EventName)

      // if the document is linked to a new entity then it is added as a new message part under the same event changed message
      if (document.isFieldChanged(Document#Account) || document.isFieldChanged(Document#Policy) || document.isFieldChanged(Document#Job)) {
        builder.addEntityModelToMessage(document)
      }
      if (model.$ShouldSend) {
        builder.addMessagePart('document', model)
        messageContext.createMessage(builder.Message.asUTFString())
      }
    }


/*end00rule*/
  }
}
