package rules.EventMessage.EventFired_dir.TDIC_ALL900000_dir.EFR7100OnBase_dir

uses acc.onbase.api.si.MessageBuilder

@gw.rules.RuleName("EFR7160ProducerCodeChanged")
internal class EFR7160ProducerCodeChanged {
  static function doCondition(messageContext : entity.MessageContext) : boolean {
/*start00rule*/
    return messageContext.EventName == 'ProducerCodeChanged'
/*end00rule*/
  }

  static function doAction(messageContext : entity.MessageContext, actions : gw.rules.Action) {
/*start00rule*/
    var producerCode = messageContext.Root as ProducerCode
    if (producerCode.isFieldChanged(ProducerCode#Code)) {
      var builder = new MessageBuilder(messageContext.EventName)
      builder.addProperty('OriginalCode', producerCode.getOriginalValue(ProducerCode#Code))
      builder.addProperty('NewCode', producerCode.Code)
      messageContext.createMessage(builder.Message.asUTFString())
    }
/*end00rule*/
  }
}
