package rules.Renewal.RenewalAutoUpdate_dir.BusinessOwnersPolicy_dir

@gw.rules.RuleName("Auto-increase building limits")
internal class Autoincreasebuildinglimits {
  static function doCondition(policyPeriod : entity.PolicyPeriod) : boolean {
    
/*start00rule*/
return policyPeriod.BOPLineExists
/*end00rule*/

  }

  static function doAction(policyPeriod : entity.PolicyPeriod, actions : gw.rules.Action) {

/*start00rule*/
for (bld in policyPeriod.BOPLine.BOPLocations.arrays("Buildings").toArray(new BOPBuilding[0])) {
  if (bld.BOPBuildingCov != null) {
    var increase = bld.BOPBuildingCov.BOPBldgAnnualIncreaseTerm.Value
    if (increase != 0) {
      bld.BOPBuildingCov.BOPBldgLimTerm.Value =
          bld.BOPBuildingCov.BOPBldgLimTerm.Value * (1 + (increase / 100))
    }
  }
      if (bld.BOPPersonalPropCov != null) {
    var increasebpp = bld.BOPPersonalPropCov.BOPInflationGuard_TDICTerm.Value
        bld.BOPPersonalPropCov.BOPBPPBldgLimTerm.Value =
           bld.BOPPersonalPropCov.BOPBPPBldgLimTerm.Value * (1 + (increasebpp/100))
  }
}
/*end00rule*/

  }
}
