package rules.Renewal.RenewalAutoUpdate_dir

@gw.rules.RuleDisabled
@gw.rules.RuleName("Business Auto")
internal class BusinessAuto {
  static function doCondition(policyPeriod : entity.PolicyPeriod) : boolean {
    
/*start00rule*/
return true
/*end00rule*/

  }

  static function doAction(policyPeriod : entity.PolicyPeriod, actions : gw.rules.Action) {

/*start00rule*/

/*end00rule*/

  }
}
