package rules.Renewal.RenewalAutoUpdate_dir

@gw.rules.RuleName("Workers Comp v7 TDIC")
internal class WorkersCompv7TDIC {
  static function doCondition(policyPeriod : entity.PolicyPeriod) : boolean {
/*start00rule*/
return policyPeriod.WC7LineExists
/*end00rule*/
}

  static function doAction(policyPeriod : entity.PolicyPeriod, actions : gw.rules.Action) {
/*start00rule*/

/*end00rule*/
  }
}
