package rules.EventMessage.EventFired_dir.TDIC_ALL900000_dir.TDIC_EFR910000HPExstream_dir
uses tdic.pc.integ.plugins.hpexstream.util.TDIC_PCExstreamHelper

@gw.rules.RuleName("TDIC_EFR918100 - AuditNotice")
internal class TDIC_EFR918100AuditNotice {
  static function doCondition(messageContext   :   entity.MessageContext) : boolean {
/*start00rule*/
return messageContext.Root typeis PolicyPeriod
and messageContext.EventName == TDIC_DocCreationEventType.TC_AUDITNOTICE.Code
/*end00rule*/
}

  static function doAction(messageContext   :   entity.MessageContext, actions : gw.rules.Action) {
/*start00rule*/
var aPolicyPeriod = messageContext.Root as PolicyPeriod
var pcHelper = new TDIC_PCExstreamHelper()
var document = pcHelper.getDocs(aPolicyPeriod.Job, messageContext.EventName).first()
pcHelper.createMessage(messageContext, messageContext.EventName, document) 
/*end00rule*/
  }
}
