package rules.EventMessage.EventFired_dir.TDIC_ALL900000_dir.TDIC_EFR910000HPExstream_dir


@gw.rules.RuleName("TDIC_EFR918000 - Audit")
internal class TDIC_EFR918000Audit {
  static function doCondition(messageContext   :   entity.MessageContext) : boolean {
/*start00rule*/
return true
/*end00rule*/
}

  static function doAction(messageContext   :   entity.MessageContext, actions : gw.rules.Action) {
/*start00rule*/
/*
* US645
* 01/20/2015 shanem
*
* All Audit events caught in rule children
*/ 
/*end00rule*/
  }
}
