package rules.EventMessage.EventFired_dir.TDIC_ALL900000_dir.TDIC_EFR910000HPExstream_dir

uses tdic.pc.integ.plugins.hpexstream.util.TDIC_PCExstreamHelper
uses gw.pl.logging.LoggerCategory
uses org.slf4j.LoggerFactory

@gw.rules.RuleName("TDIC_EFR913100 - NoticeOfCancellation")
internal class TDIC_EFR913100NoticeOfCancellation {
  static function doCondition(messageContext : entity.MessageContext) : boolean {
/*start00rule*/
LoggerFactory.getLogger("EXSTREAM_DOCUMENT_PRODUCTION").info("Rule: TDIC_EFR913100 - NoticeOfCancellation --> ${messageContext.EventName} -- ${messageContext.Root}")
return messageContext.Root typeis PolicyPeriod
and (messageContext.EventName == TDIC_DocCreationEventType.TC_NOTICEOFCANCELLATION.Code ||
    messageContext.EventName == TDIC_DocCreationEventType.TC_ENDORSEMENTHOLDERNOC.Code)
/*end00rule*/
}

  static function doAction(messageContext : entity.MessageContext, actions : gw.rules.Action) {
/*start00rule*/

LoggerFactory.getLogger("EXSTREAM_DOCUMENT_PRODUCTION").info("Rule: TDIC_EFR913100 - NoticeOfCancellation - Create a document message for event: ${messageContext.EventName}.")
var pcHelper = new TDIC_PCExstreamHelper()
var document = pcHelper.getDocs((messageContext.Root as PolicyPeriod).Job, messageContext.EventName).first()
pcHelper.createMessage(messageContext, messageContext.EventName, document)
LoggerFactory.getLogger("EXSTREAM_DOCUMENT_PRODUCTION").info("Rule: TDIC_EFR913100 - NoticeOfCancellation - Create a document message for event: ${messageContext.EventName} completed.")
/*end00rule*/
  }
}
