package rules.EventMessage.EventFired_dir.TDIC_ALL900000_dir.TDIC_EFR910000HPExstream_dir

uses tdic.pc.integ.plugins.hpexstream.util.TDIC_PCExstreamHelper


@gw.rules.RuleName("TDIC_EFR911500 - Endorse And Certificate Holder")
internal class TDIC_EFR911500EndorseAndCertificateHolder {
  static function doCondition(messageContext : entity.MessageContext) : boolean {
/*start00rule*/
return messageContext.Root typeis PolicyPeriod
    and (messageContext.EventName == TDIC_DocCreationEventType.TC_ENDORSEMENTHOLDERBOP.Code ||
    messageContext.EventName == TDIC_DocCreationEventType.TC_ENDORSEMENTHOLDERLRP.Code ||
    messageContext.EventName == TDIC_DocCreationEventType.TC_CERTIFICATEHOLDERCOIOCC.Code ||
    messageContext.EventName == TDIC_DocCreationEventType.TC_ENDORSEMENTHOLDEROCCBL.Code ||
    messageContext.EventName == TDIC_DocCreationEventType.TC_ENDORSEMENTHOLDEROCCPL.Code ||
    messageContext.EventName == TDIC_DocCreationEventType.TC_CERTIFICATEHOLDERCOIPBL.Code ||
    messageContext.EventName == TDIC_DocCreationEventType.TC_ENDORSEMENTHOLDERPBLBL.Code ||
    messageContext.EventName == TDIC_DocCreationEventType.TC_ENDORSEMENTHOLDERPBLPL.Code ||
    messageContext.EventName == TDIC_DocCreationEventType.TC_CERTIFICATEHOLDERSSPBL.Code ||
    messageContext.EventName == TDIC_DocCreationEventType.TC_NWPAYMENTPLANLETTER.Code)
/*end00rule*/
}

  static function doAction(messageContext : entity.MessageContext, actions : gw.rules.Action) {
/*start00rule*/
    var aPolicyPeriod = messageContext.Root as PolicyPeriod
    var pcHelper = new TDIC_PCExstreamHelper()
    var document = pcHelper.getDocs(aPolicyPeriod.Job, messageContext.EventName).first()
    pcHelper.createMessage(messageContext, messageContext.EventName, document)
/*end00rule*/
  }
}
