package rules.EventMessage.EventFired_dir

@gw.rules.RuleName("Async Document Storage")
internal class AsyncDocumentStorage {
  static function doCondition(messageContext : entity.MessageContext) : boolean {
    
/*start00rule*/
return messageContext.DestID == 324 and messageContext.EventName == "DocumentStore"
and ScriptParameters.TDIC_DataSource == typekey.DataSource_TDIC.TC_POLICYCENTER as String
/*end00rule*/

  }

  static function doAction(messageContext : entity.MessageContext, actions : gw.rules.Action) {

/*start00rule*/
messageContext.createMessage( "DocumentStore" )
/*end00rule*/

  }
}
