package rules.EventMessage.EventFired_dir

@gw.rules.RuleName("Email")
internal class Email {
  static function doCondition(messageContext : entity.MessageContext) : boolean {
    
/*start00rule*/
return messageContext.DestID == 65
and ScriptParameters.TDIC_DataSource == typekey.DataSource_TDIC.TC_POLICYCENTER.Code
/*end00rule*/

  }

  static function doAction(messageContext : entity.MessageContext, actions : gw.rules.Action) {

/*start00rule*/

/*end00rule*/

  }
}
