package rules.EventMessage.EventFired_dir


@gw.rules.RuleName("MigrationMode_TDIC")
internal class MigrationMode_TDIC {
  static function doCondition(messageContext : entity.MessageContext) : boolean {
/*start00rule*/

// 20160624 TJT GW-1991
// Skip all async message creation while in automatic or manual migration mode
return (typekey.DataSource_TDIC.get(ScriptParameters.TDIC_DataSource) != typekey.DataSource_TDIC.TC_POLICYCENTER)
/*end00rule*/
}

  static function doAction(messageContext : entity.MessageContext, actions : gw.rules.Action) {
/*start00rule*/

actions.exit()
/*end00rule*/
  }
}
