package rules.EventMessage.EventFired_dir

@gw.rules.RuleDisabled
@gw.rules.RuleName("TDIC_EFR1000000_Statistical reporting")
internal class TDIC_EFR1000000_Statisticalreporting {
  static function doCondition(messageContext : entity.MessageContext) : boolean {
/*start00rule*/
return messageContext.DestID == 70
and ScriptParameters.TDIC_DataSource == typekey.DataSource_TDIC.TC_POLICYCENTER.Code
/*end00rule*/
}

  static function doAction(messageContext : entity.MessageContext, actions : gw.rules.Action) {
/*start00rule*/
 
/*end00rule*/
  }
}
