package rules.Renewal.RenewalAutoUpdate_dir.WorkersCompv7TDIC_dir

uses java.util.Calendar
uses gw.api.system.PCLoggerCategory
uses org.slf4j.LoggerFactory

@gw.rules.RuleName("Jan 1, 2017 - AB2883 Remove Exclusions")
internal class Jan12017AB2883RemoveExclusions {
  static function doCondition(policyPeriod  :  entity.PolicyPeriod) : boolean {
/*start00rule*/
var calendar = Calendar.getInstance();
calendar.set(2017, Calendar.JANUARY, 1);
var ab2883Date = calendar.Time;
return policyPeriod.EditEffectiveDate.compareIgnoreTime(ab2883Date)  == 0
/*end00rule*/
}

  static function doAction(policyPeriod  :  entity.PolicyPeriod, actions : gw.rules.Action) {
/*start00rule*/
var logger = LoggerFactory.getLogger("Application.JobProcess");
var LOG_TAG = "AB-2883 - "

var wc7Line = policyPeriod.WC7Line;
var exclusion = wc7Line.WC7PartnersOfficersAndOthersExclEndorsementExcl;

if (exclusion != null) {
  for (ownerOfficer in wc7Line.WC7ExcludedPolicyOwnerOfficers) {
    logger.info (LOG_TAG + "Changing " + ownerOfficer + " to an included owner officer.");
    ownerOfficer.isExcluded_TDIC = false;
  }

  logger.info (LOG_TAG + "Removing " + exclusion + " from policy");
  policyPeriod.WC7Line.removeExclusionFromCoverable(exclusion);
}
/*end00rule*/
  }
}
