package rules.EventMessage.EventFired_dir.TDIC_OnBase_dir

uses acc.onbase.api.si.PolicyMessageBuilder

@gw.rules.RuleName("DocumentAdded")
internal class DocumentAdded {
  static function doCondition(messageContext: entity.MessageContext): boolean {
/*start00rule*/
    return messageContext.EventName == "DocumentAdded"
/*end00rule*/
  }

  static function doAction(messageContext: entity.MessageContext, actions: gw.rules.Action) {
/*start00rule*/
    var document = messageContext.Root as Document
    if (document.DocumentIdentifier == "Imported from OnBase") {
      var builder = new PolicyMessageBuilder(messageContext.EventName)
      var model = new acc.onbase.api.si.model.documentmodel.Document()
      model.DocUID = document.DocUID
      model.SecurityType = document.SecurityType
      builder.addMessagePart('document', model)
      builder.addEntityModelToMessage(document)
      messageContext.createMessage(builder.Message.asUTFString())
    }
/*end00rule*/
  }
}
