package rules.EventMessage.EventFired_dir

@gw.rules.RuleDisabled
@gw.rules.RuleName("Resync Account")
internal class ResyncAccount {
  static function doCondition(messageContext : entity.MessageContext) : boolean {
    
/*start00rule*/
return messageContext.Root typeis Account and 
messageContext.EventName == "ResyncAccount"
and ScriptParameters.TDIC_DataSource == typekey.DataSource_TDIC.TC_POLICYCENTER.Code
/*end00rule*/

  }

  static function doAction(messageContext : entity.MessageContext, actions : gw.rules.Action) {

/*start00rule*/

messageContext.createMessage("Resync Account")
/*end00rule*/

  }
}
