package rules.EventMessage.EventFired_dir
@gw.rules.RuleName("TDIC_ALL900000")
internal class TDIC_ALL900000 {
  static function doCondition(messageContext  :  entity.MessageContext) : boolean {
/*start00rule*/
return ScriptParameters.TDIC_DataSource == typekey.DataSource_TDIC.TC_POLICYCENTER.Code
/*end00rule*/
}

  static function doAction(messageContext  :  entity.MessageContext, actions : gw.rules.Action) {
/*start00rule*/

/*end00rule*/
  }
}
