package rules.EventMessage.EventFired_dir.TDIC_ALL900000_dir.TDIC_EFR920000EnrolePolicy_dir.TDIC_EFR921000PolicyPeriod_dir


uses org.slf4j.LoggerFactory
uses tdic.pc.common.batch.enrole.EnroleHelper

@gw.rules.RuleName("TDIC_EFR921100 - BoundPeriod")
internal class TDIC_EFR921100BoundPeriod {
  static function doCondition(messageContext : entity.MessageContext) : boolean {
/*start00rule*/
return messageContext.EventName == PolicyPeriod.POLICYPERIODCHANGED_EVENT &&
    (messageContext.Root as PolicyPeriod).Status == PolicyPeriodStatus.TC_BOUND
/*end00rule*/
}

  static function doAction(messageContext : entity.MessageContext, actions : gw.rules.Action) {
/*start00rule*/

    var _logger = LoggerFactory.getLogger("TDIC_Enrole")
    var period = messageContext.Root as PolicyPeriod
    //Generate xml payload for enrole policy info.
    var policyPayload = EnroleHelper.generateEnrolePolicyPayload(period.getSlice(period.EditEffectiveDate))

    _logger.debug(actions.getRule().DisplayName + " Processing " + messageContext.EventName
        + " for Policy# : " + period.PolicyNumber + ", Job# :" + period.Job.JobNumber)

    messageContext.createMessage(policyPayload)
/*end00rule*/
  }
}
